Id,Idade,Saldo,Tem carro,Salário,Produto
0,23,1072.6460393886168,1,7676.932966700014,Financiamento
1,22,3250.2325769626086,1,6797.3817109631345,Seguradora
2,25,1745.7911872190132,0,3935.5798045625515,Empréstimo
3,21,1636.897162902765,1,7138.308867563221,Poupança
4,20,1836.832854782343,1,9188.146732570058,Poupança
5,24,801.9122041568081,0,4425.269003726744,Empréstimo
6,22,689.9362876880355,0,4896.218290290207,Conta Corrente
7,23,-349.5036073026201,0,4515.91838786842,Empréstimo
8,23,-373.4503280138952,0,1831.0297347728656,Empréstimo
9,22,2308.1928701566394,1,5562.565050790351,Conta Corrente
10,23,4102.552709201671,1,4466.43924956974,Corretora
11,22,1138.4371065809833,0,5067.004188872211,Conta Corrente
12,25,3397.291785070681,0,4168.408214374992,Seguradora
13,21,987.795849448452,1,7476.161796257112,Poupança
14,22,1496.7945687480726,1,5213.3783006726135,Conta Corrente
15,23,129.30387955574952,0,5760.775137125273,Poupança
16,23,6288.1949047135695,1,4072.4777492004555,Corretora
17,22,4429.144996305929,1,6356.0689118850005,Conta Corrente
18,24,1749.7565673506372,0,6463.511809712449,Financiamento
19,22,339.65589676911856,0,4838.044024786838,Conta Corrente
20,23,440.8830767077134,0,5754.641200248497,Empréstimo
21,21,-2188.3346414728335,0,3475.6824613159965,Conta Corrente
22,24,603.7495902387986,0,6411.482770563618,Financiamento
23,23,4737.039582172999,1,3194.8651242908154,Corretora
24,22,825.6672208709501,0,4748.392927831223,Conta Corrente
25,23,578.236059733189,0,4243.4766685633995,Empréstimo
26,24,993.8277382336105,0,6466.170690192102,Financiamento
27,24,1097.1365585199387,0,7288.388673196083,Financiamento
28,24,224.59841918187485,0,6546.015123406341,Financiamento
29,26,676.426852244919,0,5223.435872185482,Financiamento
30,22,-203.6595151325331,0,7028.786324898388,Poupança
31,23,937.6097686950089,0,5587.506349607658,Poupança
32,26,3955.304393855628,0,5481.210781903956,Empréstimo
33,24,-1424.6276654191815,0,5803.504421390574,Poupança
34,25,1187.5522149975443,0,6596.524198474353,Financiamento
35,23,5701.419116311502,1,3628.1708492451185,Corretora
36,24,-48.158138949756065,0,7044.353770328456,Financiamento
37,21,1332.0724207799456,1,7742.987932513548,Poupança
38,24,1012.3671404153538,0,6800.624360502663,Financiamento
39,23,210.8859759705064,1,8130.6631730088575,Financiamento
40,25,725.0688237090959,0,4389.491887053138,Seguradora
41,23,1768.803703878248,0,5541.960880649715,Conta Corrente
42,23,1363.7887834235096,0,6516.238341394909,Empréstimo
43,24,1130.8478817029397,0,7435.490294280761,Financiamento
44,24,1205.5106581080975,0,7012.415460925089,Financiamento
45,24,476.1561988111791,0,5147.3403352167725,Poupança
46,21,2974.8208711791854,1,7391.430371044175,Seguradora
47,21,-170.14094021395022,1,8886.979361513566,Poupança
48,23,731.9055634541909,0,5982.387103892782,Poupança
49,24,1827.8521284572594,0,5646.50389380088,Empréstimo
50,21,1663.964386974622,1,8199.186889975119,Seguradora
51,22,3071.3102448832205,1,5881.467392724203,Conta Corrente
52,22,-260.4839542592776,0,6157.565000539097,Poupança
53,22,1631.2869365149575,1,5371.454139786949,Conta Corrente
54,22,265.78822028981807,1,7013.901020394782,Poupança
55,22,52.714461749735705,1,7745.860660594185,Poupança
56,23,315.641380839081,0,6289.052747934862,Empréstimo
57,24,1836.9801855530854,0,6954.251555170087,Financiamento
58,23,-795.2897437553008,0,2958.1407331602,Financiamento
59,22,4071.4310481337643,1,6254.29283958315,Conta Corrente
60,23,1197.1466138796322,0,4309.165661597309,Corretora
61,22,1208.365485853543,0,5958.451188752289,Poupança
62,24,3749.0451975346155,0,4998.190621147514,Corretora
63,24,3574.6280120150873,0,4562.612182185736,Corretora
64,24,5162.270963621433,1,4296.485642282786,Corretora
65,26,2816.7151058074965,0,4584.46360853141,Empréstimo
66,22,989.4553951961586,1,4866.410774193942,Conta Corrente
67,24,2759.439315583582,0,5754.849778303602,Corretora
68,25,2382.8587414229714,0,7046.056755484478,Empréstimo
69,25,1837.2597463942686,0,5359.48682218438,Empréstimo
70,22,3532.715167545793,1,7244.372184021508,Seguradora
71,25,2430.411290963371,0,7087.1004236824965,Empréstimo
72,24,1804.171772453817,0,4461.731156866399,Poupança
73,22,2236.698245520349,1,7322.478072144948,Poupança
74,25,2101.3206213835238,0,3543.9038593630135,Empréstimo
75,22,3552.816715348935,1,5874.283844775073,Conta Corrente
76,20,2209.298381428824,1,8874.786669717276,Poupança
77,23,262.2502465989407,0,5223.887161737203,Conta Corrente
78,24,1257.4793016423412,0,7367.581936106931,Financiamento
79,22,940.5292022103287,1,6820.016153545585,Poupança
80,24,2242.1245022309445,0,7110.040667038857,Financiamento
81,22,-1448.74237881629,0,4788.415549898306,Empréstimo
82,23,236.57380784493597,0,6831.335001347134,Poupança
83,25,1908.1483013914496,0,6564.420262024462,Financiamento
84,21,3318.7974694083887,1,8155.400443903872,Conta Corrente
85,23,355.61874927547234,0,7349.892844603534,Financiamento
86,22,-13.729082884255561,0,4626.533494980948,Conta Corrente
87,22,1202.3590999291275,1,5065.395566733439,Conta Corrente
88,23,613.0330310517462,0,5477.667082925886,Poupança
89,23,743.213689146394,0,7390.782351762856,Financiamento
90,22,4105.25727117443,1,7050.630568175001,Seguradora
91,22,-1094.2975714063068,0,7841.616890525031,Poupança
92,22,1322.5188012627161,1,6951.292218151431,Poupança
93,23,291.40234470024893,0,3919.235810318302,Empréstimo
94,22,3532.4105259654434,1,6483.497453389587,Seguradora
95,22,1689.3243056059473,1,5446.48788573745,Conta Corrente
96,25,2855.8471609206435,0,5936.289305741931,Corretora
97,23,106.88272517908226,0,5677.528373665533,Empréstimo
98,24,577.0815312327672,0,7025.542542219269,Financiamento
99,24,1425.9004748836155,0,6872.696016812969,Empréstimo
100,22,4214.439007090496,1,4899.8466504110675,Corretora
101,24,1094.2690762835948,0,6865.759121002319,Financiamento
102,21,-1864.4050609044803,0,3574.9823042818343,Conta Corrente
103,21,1314.8619247886859,1,6869.108223648941,Poupança
104,24,1650.4708481607233,0,6829.432669946468,Financiamento
105,23,2141.1167085160414,0,5216.3306958883295,Seguradora
106,24,2665.4923899141704,0,5424.962540554195,Corretora
107,24,2922.4957054835345,0,4020.839609604528,Corretora
108,21,1992.3461532280123,1,7280.397613682173,Seguradora
109,23,3022.1081782026495,1,5969.405351779159,Conta Corrente
110,22,4797.7722979083155,1,3112.8406884966244,Poupança
111,25,1652.9706725222393,0,4667.727914130627,Corretora
112,27,3259.216913718341,0,4471.072409496149,Empréstimo
113,27,1710.0832344433845,0,5894.19917250527,Corretora
114,24,991.157720814567,0,6726.934688239817,Financiamento
115,23,878.1674765976031,0,6013.28991176288,Empréstimo
116,24,2099.2673056740455,0,5330.796258980736,Corretora
117,25,1469.592788257619,0,3133.0947141396427,Empréstimo
118,24,1514.6716439763939,0,4334.131408587146,Seguradora
119,23,2040.8702278899739,0,5431.5801152020185,Seguradora
120,20,223.6016955644733,1,9032.8033665493,Poupança
121,22,-1135.466059110766,0,7888.676370006968,Poupança
122,24,-325.290470457249,0,5566.092435205673,Poupança
123,25,2056.335756899699,0,5665.193609388041,Corretora
124,22,2470.8632893340464,1,7177.618200034167,Seguradora
125,23,4143.725006546298,1,4441.883952881351,Corretora
126,22,1884.5452370326252,1,7445.502146143939,Seguradora
127,25,729.2633661145982,0,1874.828902507745,Empréstimo
128,22,1365.9853331374775,0,5284.3270513516745,Conta Corrente
129,22,998.2110405449633,0,5009.845887071739,Conta Corrente
130,26,2891.8880780593777,0,6348.725000962594,Empréstimo
131,26,1807.9402006322264,0,3974.8146405861858,Empréstimo
132,23,1807.173765660025,0,6318.254123225414,Seguradora
133,24,3110.0337525168707,0,4973.978589030802,Seguradora
134,23,2533.0779006508424,1,6514.589122304242,Seguradora
135,22,-217.7720308618909,0,4572.577729258676,Conta Corrente
136,23,3465.2168198850763,1,3928.956664886745,Corretora
137,25,-437.4863317623108,0,6195.346777869575,Financiamento
138,22,3805.1613180443073,1,6944.821409438423,Seguradora
139,23,2033.2750383592906,0,4216.561011664602,Poupança
140,26,2112.6375667164634,0,5062.653536682307,Corretora
141,25,2577.1069995096245,0,5356.551442032861,Corretora
142,21,2239.412503404525,1,6864.915059861743,Seguradora
143,21,1229.7006046290876,1,7379.501212362794,Seguradora
144,25,2109.2567811966073,0,5434.44570949473,Corretora
145,24,1776.4948837031707,0,5071.385246282655,Corretora
146,23,1240.5349782025633,1,7740.204743009381,Financiamento
147,22,2999.6427783334825,1,7117.016435990976,Seguradora
148,26,3182.692988331427,0,5128.279835344602,Empréstimo
149,26,2103.220652241874,0,4771.771146671622,Empréstimo
150,23,846.8400611845503,0,6232.650596900865,Poupança
151,21,1593.9894016554601,1,7651.718076065509,Poupança
152,25,2161.9940594950444,0,6254.430263387584,Empréstimo
153,24,4084.578561469776,1,5972.964219845484,Corretora
154,22,3071.1305937659567,1,7561.702042063251,Seguradora
155,22,1335.182444542699,1,5945.906163015447,Poupança
156,22,308.4045352685436,0,4747.792249756264,Conta Corrente
157,25,837.9717711191408,0,2284.929573132996,Empréstimo
158,22,4274.677661995403,1,7303.131853857605,Seguradora
159,20,1072.7310067326102,1,8898.260048302282,Poupança
160,25,588.7223490131064,0,6190.5088795578,Financiamento
161,22,3602.8320582371766,1,6435.763633365454,Seguradora
162,21,1372.5018640103071,1,7284.9533943388515,Poupança
163,23,1904.084941945634,0,5032.881410029888,Corretora
164,21,1837.1432488929859,1,7647.533189900207,Poupança
165,26,1218.959171876793,0,6532.907467110775,Corretora
166,24,5023.937076914403,1,4641.713421469609,Corretora
167,19,1149.8005045453149,1,10621.050445876941,Poupança
168,23,3608.4864027919198,0,4048.715397348511,Corretora
169,23,336.22177178944446,0,7172.000030925957,Financiamento
170,24,129.79747983846178,0,6625.017909753994,Financiamento
171,24,1466.9416843525905,0,5060.643072331734,Empréstimo
172,21,-1089.4843558778296,0,3843.705274139975,Conta Corrente
173,22,495.940871600971,0,4632.887088064309,Conta Corrente
174,26,3179.042099197322,0,4658.93828375032,Empréstimo
175,26,1401.152480119339,0,5805.153140383581,Seguradora
176,23,3532.9420122903234,1,5660.242023095597,Corretora
177,23,427.8573344752863,0,4337.579028816711,Empréstimo
178,23,1585.7274920519492,0,5408.1424717636855,Poupança
179,24,95.34284607650356,0,5192.701734149248,Poupança
180,24,3617.9043630254373,0,3974.7840159043435,Corretora
181,23,4276.302265507617,1,4402.956262911127,Corretora
182,22,4438.88874610294,1,6935.03591456288,Seguradora
183,23,1475.3902447181968,0,5965.633059373378,Poupança
184,22,-384.5278055511896,1,7372.698473004986,Empréstimo
185,24,717.3320977111099,0,3922.883818147427,Empréstimo
186,22,3873.0804581723564,1,7232.375064128055,Seguradora
187,21,727.5773289914309,1,8057.453293889537,Poupança
188,24,1255.3829851325654,0,7356.494076847073,Financiamento
189,25,939.4622250811533,0,6391.640366585053,Financiamento
190,24,1463.7565128688643,0,7247.018052533925,Financiamento
191,26,1826.8692255084843,0,7020.0931956140375,Corretora
192,23,-1213.5331055963231,0,2132.9879542062645,Empréstimo
193,23,1781.3386257082589,1,5518.615455618546,Conta Corrente
194,24,1703.3542385592768,0,6468.497703622058,Empréstimo
195,19,2752.0967260643597,1,10053.067400314418,Poupança
196,24,299.0454153165585,0,6582.495606124446,Financiamento
197,25,3734.1884374891265,0,5368.236033678535,Corretora
198,22,-396.03836881717314,0,5532.520391102983,Empréstimo
199,24,1237.182177633744,0,6033.1786053999,Empréstimo
200,24,1413.6228046867693,0,5114.435397777802,Empréstimo
201,24,1698.2974432573296,1,7548.820283682934,Financiamento
202,24,84.18956059253358,0,6534.5284408746775,Financiamento
203,23,2942.2282415432423,1,6221.491607352096,Seguradora
204,22,831.5290669565373,0,4864.710515943697,Poupança
205,22,904.3382498257555,0,5103.103674983987,Conta Corrente
206,24,4409.808565251429,1,4877.246572467191,Corretora
207,25,3691.9353833905166,0,4947.556101961065,Corretora
208,23,756.2798843968484,1,8485.784505076734,Empréstimo
209,24,125.92100492676784,0,5836.567178377928,Empréstimo
210,26,2760.1115245830715,0,4588.393235898392,Empréstimo
211,22,489.20921712722156,0,4758.319365375042,Conta Corrente
212,22,-525.3728636115005,1,7699.750655979101,Poupança
213,19,3459.0838218156828,1,9244.867398387501,Seguradora
214,24,3457.4600502490325,0,5079.985278913037,Corretora
215,23,253.13471452004,0,4456.564321529847,Empréstimo
216,22,2540.8715348404744,1,5212.083990881442,Poupança
217,23,1466.2829414453872,1,7402.616871206169,Empréstimo
218,23,3830.9891286532065,1,6286.507862111362,Conta Corrente
219,23,1652.2011366356332,0,4750.0026979744625,Poupança
220,23,1310.4187841457658,1,6488.012659033431,Poupança
221,24,2614.908406048419,0,4812.547733915969,Corretora
222,25,903.172834963801,0,6231.28588659443,Financiamento
223,22,3997.5921351709367,1,6938.816926691832,Seguradora
224,23,269.845434065604,0,5303.119075354341,Seguradora
225,22,520.4193961719685,0,4800.671791730722,Conta Corrente
226,22,2009.4008662980882,1,5499.1057592935485,Conta Corrente
227,25,2302.448201164652,0,5063.084730671316,Corretora
228,24,438.4055005384337,0,6807.2289803892745,Financiamento
229,24,2208.85325995459,0,4238.842638279139,Corretora
230,22,615.9695246539094,1,7579.062518252504,Poupança
231,24,339.22480790467955,0,6580.135621198555,Financiamento
232,22,1146.4631851820934,1,4937.623145942728,Conta Corrente
233,24,2733.4485506799265,0,4272.914842466795,Corretora
234,21,2374.9031666951932,1,8751.098957928243,Seguradora
235,24,1291.7873564272418,0,6917.2692143117865,Financiamento
236,23,345.4003113441122,0,4556.626210406201,Empréstimo
237,23,5751.513233627318,1,6644.7666189779,Seguradora
238,23,2906.6669522403445,1,6318.776788165367,Seguradora
239,24,2028.6591005066175,0,4515.606387928582,Seguradora
240,23,832.0999431680973,0,7479.693652261728,Financiamento
241,25,1796.422745618585,0,4332.546733005836,Empréstimo
242,23,1331.994629840106,0,5372.829065899461,Conta Corrente
243,22,1171.3705724336169,1,7123.816424746157,Poupança
244,24,1596.8226200800273,0,5977.344353677916,Corretora
245,22,1472.3450527482905,1,6235.892537591369,Poupança
246,22,2872.415831953762,1,5874.494456517685,Poupança
247,24,1177.687667266648,0,4598.597372535453,Empréstimo
248,23,5175.87183321437,1,6065.821012003675,Seguradora
249,20,2091.0202687643487,1,7952.687336576561,Seguradora
250,25,1574.015923620285,0,3926.4751436063493,Seguradora
251,24,2763.5583574606076,0,5739.637050003824,Seguradora
252,24,552.1074830144171,0,6973.992235323604,Financiamento
253,22,4378.024693842442,1,6917.201835110066,Seguradora
254,24,962.3164397346309,0,6699.720396336109,Financiamento
255,22,3107.1617669871466,1,6578.861925399193,Seguradora
256,24,3051.6797236811435,1,6196.860623268136,Seguradora
257,24,718.837391153055,0,7320.858929935023,Financiamento
258,25,1872.78482364245,0,4692.549223933419,Empréstimo
259,22,2015.5234489300674,1,6683.250189618444,Poupança
260,24,1273.7677179554157,0,7314.597034484435,Financiamento
261,22,2106.1170398801773,1,6542.103294243467,Poupança
262,24,1742.0895307221608,0,7264.13044430026,Empréstimo
263,26,1847.6196773611898,0,5113.1605169064815,Corretora
264,23,739.689330010285,0,5949.582721020977,Poupança
265,23,1801.4110365767744,0,5569.686464835673,Conta Corrente
266,22,1023.5735982845009,1,4807.518085616493,Conta Corrente
267,26,3868.1200164679117,0,5093.542354299317,Corretora
268,25,1939.7887160687603,0,4334.002657876624,Empréstimo
269,22,1568.7827109375853,1,5108.707570212952,Conta Corrente
270,24,319.56674659251314,0,2775.019923312259,Empréstimo
271,24,949.6894950865078,0,3709.57933635228,Empréstimo
272,24,679.9759872752253,0,5270.22458218162,Empréstimo
273,21,1805.9292986846583,1,7117.515793080783,Poupança
274,23,2182.0988175043503,1,5450.3725280732115,Poupança
275,23,-1101.0785247156657,0,2924.4721922718804,Empréstimo
276,24,1517.2662448775272,0,5389.253232901622,Empréstimo
277,22,1909.9423788413233,1,5243.5804952065155,Conta Corrente
278,19,2920.041223613069,1,8903.046508334986,Seguradora
279,23,4794.2690775294195,1,5001.7027407331125,Corretora
280,24,3082.174641210538,1,6077.624644863166,Corretora
281,24,448.5182519447952,0,6802.76075571066,Financiamento
282,24,4670.884004705442,1,5590.169873650012,Seguradora
283,24,4650.345320174005,1,4434.866078267346,Corretora
284,24,3546.96554127711,0,4524.423670222933,Corretora
285,25,1139.9764396177886,0,6413.159524885171,Corretora
286,24,2468.887022787504,0,4051.8472263403005,Corretora
287,25,1157.411030999559,0,6064.905236839167,Financiamento
288,20,3374.700397962043,1,7732.975412284948,Seguradora
289,22,597.9870136954411,0,4770.593502121398,Conta Corrente
290,22,-624.850742229115,0,4501.548711882891,Conta Corrente
291,21,2086.4003368247,1,6981.875578709246,Poupança
292,22,2024.4593278772766,1,5446.209733331964,Conta Corrente
293,25,714.8463791120496,0,6430.798466846187,Financiamento
294,23,4468.376415535546,1,5129.088256043374,Corretora
295,23,629.444968967895,0,5790.498911264808,Empréstimo
296,22,4217.549559083864,1,6706.652300863109,Seguradora
297,22,1015.3809263824156,0,5047.570231365227,Conta Corrente
298,22,471.1961858260136,0,5001.355526512111,Conta Corrente
299,24,1157.4114239270066,0,6613.878961031223,Financiamento
300,24,111.29300527975249,0,5663.682645779566,Seguradora
301,22,482.4032443362709,0,4790.9711404713125,Conta Corrente
302,24,236.6872882323976,0,7116.498672973989,Financiamento
303,22,472.29151022682635,1,6952.6385644557795,Poupança
304,23,992.604459652479,1,7852.549751007258,Financiamento
305,22,595.2687740094805,0,4828.427345518644,Conta Corrente
306,23,1432.9952484833486,1,7549.936371738748,Financiamento
307,25,2395.322235371182,0,5010.927958201495,Corretora
308,24,3415.0971788625916,0,4725.873336249608,Seguradora
309,24,3094.2519782495942,0,5405.053214108421,Corretora
310,23,4187.759267001311,1,6040.893001739881,Seguradora
311,25,1717.0320821414266,0,4910.905240662424,Empréstimo
312,24,3102.965403281343,0,4789.680788978779,Corretora
313,24,1187.738953229962,0,7107.526749693577,Financiamento
314,21,1616.7748885309886,1,4846.018237705639,Conta Corrente
315,22,-471.8383562310051,0,4503.46490502232,Conta Corrente
316,23,3118.5126816082693,0,3971.4957425566854,Corretora
317,22,-1008.6582566868984,0,4938.736055973177,Empréstimo
318,24,4232.026802072767,0,4097.207913672713,Corretora
319,22,-1147.3317955875189,0,3753.870240307952,Empréstimo
320,24,872.7351888621957,0,5938.4450551415175,Empréstimo
321,23,2937.5854787630183,0,3661.817555136461,Corretora
322,24,1277.7777073352288,0,7167.939036464367,Financiamento
323,22,1583.9210586564761,1,5307.1009609350285,Conta Corrente
324,24,4251.88447450167,0,4472.170379061809,Corretora
325,24,1331.4205278652128,0,6336.647868345582,Financiamento
326,25,4256.834011077296,0,4621.43763263004,Corretora
327,22,-38.234295555514386,0,6759.568699406891,Poupança
328,20,2801.185519431757,1,8212.022763645033,Seguradora
329,24,1804.6421363275304,0,5071.118686555909,Corretora
330,25,260.96461328983287,0,6372.804464606877,Financiamento
331,25,1703.995649314861,0,6293.103525481935,Corretora
332,23,842.5032867382179,0,5462.480212776518,Conta Corrente
333,21,3038.786436573506,1,8171.206841306772,Seguradora
334,22,4593.089448847842,1,7575.160777640127,Seguradora
335,24,1866.2584171585825,0,7030.166343459462,Financiamento
336,23,-724.4940179075811,0,5948.371410107446,Poupança
337,22,2001.8570072727591,1,6356.4512084606395,Poupança
338,24,5852.90127017419,1,5778.212163359703,Seguradora
339,22,6267.482486354619,1,7807.448234403633,Seguradora
340,21,3924.8251047432536,1,4016.7227257801715,Corretora
341,23,679.628289116192,0,7650.995280387174,Financiamento
342,22,3616.875614606374,1,7635.404445180892,Seguradora
343,22,2429.805037452418,1,5408.407316526817,Conta Corrente
344,21,-77.24647340514056,0,4383.882675880902,Conta Corrente
345,23,218.65818265386937,0,5031.296798745388,Conta Corrente
346,22,-448.89306548135187,0,4535.775672815757,Conta Corrente
347,24,1226.8107840420078,0,6995.613266530451,Financiamento
348,24,576.1773424123304,0,7347.920342386408,Financiamento
349,24,221.23009847119746,0,6857.359409973434,Financiamento
350,26,-1536.8027253816842,0,7359.013036902432,Corretora
351,24,626.8175455194422,0,6498.960512138285,Financiamento
352,24,1330.0869322192743,0,7426.812744582671,Financiamento
353,26,1559.8564719324645,0,5447.96819816292,Financiamento
354,23,5587.802268349488,1,6415.641518058566,Seguradora
355,22,2822.1013193959293,1,5496.226981306399,Conta Corrente
356,26,1261.304411588024,0,2837.6792961551077,Empréstimo
357,21,73.07481924160663,1,8966.960959454262,Poupança
358,24,1401.6107003199945,0,4732.497211121405,Empréstimo
359,22,1863.7550658175526,1,5381.539229573911,Conta Corrente
360,23,437.8230524593998,0,7561.719751739039,Financiamento
361,22,3595.231313805332,1,7259.598963479806,Seguradora
362,23,2874.2948880003455,0,5386.13394150473,Corretora
363,20,2726.471257924997,1,8071.27256621701,Seguradora
364,23,1020.6404811812191,1,7769.512310492852,Financiamento
365,23,2923.8747047978127,1,6079.577101557229,Conta Corrente
366,25,3022.5803410655276,0,4650.871091111808,Seguradora
367,22,4165.397274780792,1,5418.551379205219,Poupança
368,21,-1089.0672792047233,0,3719.125572597383,Conta Corrente
369,24,997.5251681977742,0,4438.215700206446,Empréstimo
370,21,-543.11423162377,1,8464.86049416631,Poupança
371,23,-582.217650749735,0,3493.2186304513502,Empréstimo
372,24,1152.8236908845429,0,5253.433392385194,Empréstimo
373,26,1057.0365919861047,0,1917.3529711977535,Empréstimo
374,22,1479.6836616827784,1,7265.711599292871,Poupança
375,22,545.2375471313453,0,4694.844358303666,Conta Corrente
376,22,-742.0717323247405,0,4270.923763643953,Conta Corrente
377,23,-177.4495812438044,0,5307.028410276119,Empréstimo
378,21,1678.6023438364057,1,7531.478912201811,Poupança
379,22,512.7986318844031,0,6128.260640598128,Poupança
380,22,4221.5299200973295,1,6930.391672094997,Seguradora
381,22,1967.4122165829465,1,6558.751525216251,Seguradora
382,24,1058.4831148582018,0,5470.679783594059,Empréstimo
383,23,268.29789976063665,0,6888.381126795666,Poupança
384,23,719.9024395459237,0,7503.142687839665,Financiamento
385,24,1126.2902022116311,0,6603.2568211170965,Financiamento
386,23,4047.373270269646,0,3328.6161280134643,Corretora
387,25,1484.589726194514,0,6671.01512635667,Financiamento
388,24,816.6670203173189,0,3555.8829544087357,Empréstimo
389,24,1586.889922968501,0,6995.776002796788,Financiamento
390,24,1236.3826397358275,0,5628.704438114382,Empréstimo
391,24,2908.473816562431,0,5097.34786790231,Corretora
392,20,-141.91927580151952,1,8665.777606543963,Seguradora
393,23,1794.7192339126796,1,5722.387670099528,Poupança
394,19,3184.6920862971374,1,9740.45203323923,Seguradora
395,25,1820.7499811100206,0,6009.546499969936,Empréstimo
396,24,166.78094032365553,0,6946.769417835457,Financiamento
397,25,1185.7770638866682,0,6579.332919592778,Financiamento
398,20,3684.1395671473565,1,7967.165800477765,Seguradora
399,22,-257.7986722498666,0,4637.048139978942,Conta Corrente
400,23,4006.346020553879,1,3366.9004388497347,Corretora
401,25,2326.0457678863663,0,5970.137970010106,Corretora
402,23,1871.7924868334405,0,5403.321758239252,Corretora
403,24,-145.21958716675564,0,7196.809385787469,Financiamento
404,23,-780.7852474890442,0,7937.165575637295,Financiamento
405,23,4145.503244316965,1,6898.99021261557,Seguradora
406,25,987.1809430979204,0,4948.320637702678,Empréstimo
407,26,1974.3382218254355,0,2912.576615201818,Empréstimo
408,20,3130.440320743092,1,8120.912995123494,Seguradora
409,23,259.6461489259294,0,7503.35140488265,Financiamento
410,22,1759.3556469912771,1,5165.703493410359,Conta Corrente
411,23,2341.4319161522076,0,4664.27647053469,Corretora
412,21,829.0293648109721,1,4669.556007545923,Conta Corrente
413,23,1719.41857339373,0,5338.679750328728,Poupança
414,21,166.46165941010028,1,8042.552137524407,Poupança
415,23,-225.89560850890854,0,7744.442640077431,Financiamento
416,23,-710.8188862601929,0,6322.360744050278,Poupança
417,24,1678.388060117326,0,5096.378149608235,Empréstimo
418,23,-317.2738651126625,0,5020.426690116057,Empréstimo
419,25,1150.8344110823039,0,5681.563454543325,Corretora
420,24,5191.059883074765,1,4880.14758211801,Corretora
421,22,537.6574912581469,0,4989.738895619793,Conta Corrente
422,23,4960.96262287644,1,4762.499486519169,Corretora
423,24,1640.6280860889149,0,5976.655352628286,Empréstimo
424,22,986.7597039893105,0,4921.016626874193,Conta Corrente
425,22,1982.0497620135495,1,5435.786098927208,Conta Corrente
426,22,766.7435985146751,1,6704.48823955045,Poupança
427,21,2567.021682819925,1,7100.443913760513,Seguradora
428,21,-1103.671076359657,0,4042.8952802486187,Conta Corrente
429,21,67.85757350488896,0,4398.485971101241,Conta Corrente
430,23,628.8534915671222,0,7300.197184017779,Financiamento
431,23,1343.7855181530497,1,7816.70733720989,Financiamento
432,22,-645.8809351249473,0,4480.875434178282,Conta Corrente
433,21,147.86000594152182,0,4408.073414051584,Conta Corrente
434,24,1570.4223764679775,0,6746.980110465282,Financiamento
435,24,4122.360509126556,0,5460.914063193267,Corretora
436,24,1362.0766635558439,0,6862.355436966192,Financiamento
437,22,300.9308773293282,0,4663.039671111565,Conta Corrente
438,22,-582.4282562439853,0,4425.75353147206,Conta Corrente
439,21,1219.0245612566043,1,7656.066361821524,Poupança
440,23,5974.094569176922,1,4166.604692218504,Corretora
441,22,826.8278983212673,0,4773.389774306334,Conta Corrente
442,24,4033.9739163539134,0,4947.846977399314,Corretora
443,24,4244.748746438707,0,4762.429190013856,Corretora
444,25,1281.563437974771,0,6446.646416832875,Corretora
445,23,1629.5474871226838,1,7762.542447976922,Financiamento
446,22,41.83408046373116,0,4721.374853948784,Conta Corrente
447,23,2218.8513666874637,1,6361.124020633767,Seguradora
448,23,4722.956523030719,1,3573.422960753656,Corretora
449,24,3477.3233496410853,0,4723.839420278443,Corretora
450,22,400.8538048416437,0,4673.99419381061,Conta Corrente
451,22,1180.1751887401936,0,5058.9270639314045,Conta Corrente
452,23,825.9638552782842,1,7740.529994898014,Financiamento
453,22,1639.3159004724266,1,5284.6813705755,Conta Corrente
454,24,3385.225624104822,0,5252.098152114006,Corretora
455,25,2083.6378869206337,0,5283.273300996244,Empréstimo
456,20,-1544.6651537889582,1,5734.01430785604,Empréstimo
457,24,1162.7893168505866,0,7087.917261517891,Empréstimo
458,24,262.1105350879391,0,4399.680791751781,Empréstimo
459,21,764.517823133849,1,8451.53456440487,Poupança
460,23,1108.0872408372798,1,8430.808937840071,Financiamento
461,22,1158.2334597640768,1,4969.928257484598,Conta Corrente
462,22,1260.6863783593233,1,6682.020447874551,Poupança
463,25,2300.6377402649223,0,7119.910539077224,Empréstimo
464,25,3377.604173749721,0,4641.248955764741,Corretora
465,24,3355.9036709507186,0,4543.337652878569,Seguradora
466,22,2673.0474324565525,1,6721.1269105011315,Seguradora
467,24,5581.662580037492,1,5524.451783122621,Seguradora
468,24,3773.468303305492,1,5720.400545088104,Corretora
469,22,-477.29471419790934,0,4345.545791688723,Conta Corrente
470,22,1055.8527275177423,0,4997.854152585411,Conta Corrente
471,24,1283.6374548482995,0,5777.151250714662,Corretora
472,24,105.17101122959849,0,6764.113759131393,Financiamento
473,22,235.11529777192263,0,4858.400869031735,Conta Corrente
474,25,3925.1553325903697,0,5892.063473501166,Corretora
475,22,1951.1632156728554,1,6877.0979997606955,Seguradora
476,22,2624.118917264191,1,6285.416958089775,Seguradora
477,24,3038.53568109077,0,5111.079960478332,Corretora
478,22,1373.4465454847027,0,5264.197182081001,Conta Corrente
479,23,2429.050717548624,0,5146.178520314617,Corretora
480,25,3514.1842703532243,0,4015.346114595796,Corretora
481,21,1060.3146769016569,1,8226.690189500403,Poupança
482,23,584.8034089146117,0,6472.7835306089955,Poupança
483,23,4251.85379331149,1,3836.632405244002,Corretora
484,24,2222.2562416272876,0,5037.996029643269,Corretora
485,22,1491.665420656371,0,5324.903331545269,Conta Corrente
486,24,1147.2623377115829,0,5912.50879010314,Empréstimo
487,22,2390.3547251552823,1,5573.858847923317,Conta Corrente
488,25,1057.1869329750637,0,1775.3948080936243,Empréstimo
489,22,3114.72685085709,1,7441.362033983458,Seguradora
490,25,2213.285709519511,0,6938.1328224012,Financiamento
491,22,1096.1775816735094,1,4896.091468389527,Seguradora
492,24,714.7637518476755,0,5060.830635965531,Poupança
493,23,3747.525019855371,1,6513.686989137859,Seguradora
494,23,190.00048774066448,0,7037.8103086382935,Financiamento
495,22,-550.8100166276674,1,8359.251463364944,Poupança
496,21,310.43874400356583,1,8507.333432641532,Poupança
497,23,2120.36823801882,1,6361.341491022723,Seguradora
498,24,343.56279711526037,0,4595.12087007974,Empréstimo
499,22,1147.8191367207571,0,5135.449996904314,Conta Corrente
500,24,1943.5325875635053,0,5010.505626700243,Seguradora
501,21,-387.90199387608834,0,4278.804516561955,Conta Corrente
502,23,507.0499228741925,0,7023.484998870117,Poupança
503,21,-542.2438995399759,1,6377.380074062501,Empréstimo
504,23,2563.2792568500427,0,5934.159427140703,Seguradora
505,23,5954.604331668962,1,7006.450016824052,Seguradora
506,26,2183.330169395605,0,5517.715041281414,Corretora
507,25,738.8848390833869,0,6385.062592298676,Corretora
508,23,-495.3885842647927,0,6946.952454211636,Poupança
509,23,1011.0700370251051,0,6035.331179908493,Seguradora
510,22,-151.05299886793898,0,6213.277148813938,Empréstimo
511,23,4665.252992864218,1,3141.3737560788704,Corretora
512,24,1418.1819182443976,0,4464.145504087184,Poupança
513,20,1693.3568207247072,1,8660.717728091011,Poupança
514,23,-818.0559138149812,0,4010.043679653851,Empréstimo
515,25,212.45382330867392,0,4453.494698279173,Poupança
516,23,512.1131105233703,0,5383.7747212322865,Empréstimo
517,24,1739.8240530296202,0,7179.7516901538,Empréstimo
518,24,997.981318193001,0,6047.617218080197,Corretora
519,26,1657.0216873588818,0,5889.475045935834,Corretora
520,25,2151.021957744147,0,6230.790321187794,Empréstimo
521,23,3387.3355548460936,1,6344.098500012871,Seguradora
522,23,117.80784107084142,0,5455.935694859316,Empréstimo
523,21,2900.302975930365,1,6778.792557537885,Poupança
524,24,3513.55696656429,0,5339.026561881077,Corretora
525,22,-1368.895368256757,0,3614.494172239711,Empréstimo
526,22,245.8163790844896,1,7543.1951520980065,Poupança
527,24,2669.295865630378,0,5683.601030872484,Corretora
528,25,936.9918126465129,0,3889.35816406584,Poupança
529,25,2183.013892412826,0,6233.225318607156,Corretora
530,23,1046.654164709679,1,8417.304662482626,Financiamento
531,23,2705.337126011413,0,5725.038978976907,Corretora
532,24,606.0607532580156,0,6486.1057427774995,Financiamento
533,19,3941.9533957937633,1,9834.992253709497,Seguradora
534,24,461.00872402220983,0,6391.438498446453,Financiamento
535,21,2814.757110055493,1,7459.040604640162,Seguradora
536,24,570.5236010330932,0,3662.0543094776276,Empréstimo
537,22,1203.6855764046945,0,5164.314310132494,Conta Corrente
538,22,622.2870581467506,1,6855.22177339593,Poupança
539,25,3681.242489909016,0,4548.626972427307,Seguradora
540,22,2988.8502536680703,1,7184.767260085799,Seguradora
541,22,1373.4075656663792,1,7596.330285773447,Poupança
542,23,1394.1751825951749,0,5490.630904509617,Corretora
543,22,2610.3226171874753,1,5497.097979748771,Conta Corrente
544,22,2376.6849919833257,1,6730.271547828515,Seguradora
545,21,-27.913729700244083,1,7595.364306285717,Poupança
546,23,3311.131701555562,1,5887.305565144307,Seguradora
547,23,2439.89730334049,1,6659.60380977948,Seguradora
548,23,412.4953636255526,0,6347.764734523179,Poupança
549,24,-76.74322884648355,0,6618.2424838186125,Financiamento
550,22,603.9955270675092,0,4848.751712523001,Conta Corrente
551,21,923.6386967632699,1,4597.691258543426,Conta Corrente
552,20,4892.827607460975,1,8090.4215955447235,Seguradora
553,22,1861.2358413760928,1,5275.968364306694,Conta Corrente
554,21,315.07543477870905,0,4404.766956031755,Conta Corrente
555,21,3878.20189236006,1,7139.389115210194,Seguradora
556,25,2133.920260577067,0,6587.687996743302,Financiamento
557,23,885.8038584896121,0,6420.641828991037,Poupança
558,24,5213.398530420443,1,5790.1981607913585,Seguradora
559,25,1300.7140629908765,0,5871.2011955651515,Corretora
560,24,946.9623226190573,0,6663.836114476617,Financiamento
561,23,6942.744934035161,1,2338.948809725175,Corretora
562,24,4145.966870433739,0,5286.7929774809045,Seguradora
563,23,1586.5953720338393,0,5530.388043997496,Poupança
564,25,1390.9319019634988,0,6249.563638120506,Financiamento
565,22,1972.8134360054116,1,5353.873170984607,Conta Corrente
566,24,223.30792520975163,0,6725.698460369361,Financiamento
567,22,1197.1786454918888,1,6559.804430169701,Poupança
568,21,4332.686524413219,1,7682.062780765861,Seguradora
569,21,1783.9986497193192,1,8137.417519826551,Seguradora
570,21,5675.865642410488,1,7774.632552090775,Seguradora
571,23,66.54624679882915,0,7128.342259091108,Poupança
572,22,2709.7010271076947,1,6906.408555563289,Seguradora
573,24,540.9336572760668,0,7105.473340528837,Financiamento
574,24,2491.8179568111714,0,5547.95181110309,Corretora
575,23,58.083195597053106,0,7250.65058011241,Financiamento
576,21,2041.881713054667,1,6919.3548074825085,Poupança
577,26,3200.42994865512,0,5746.122486658626,Empréstimo
578,24,846.1413016247375,0,7245.631909443224,Financiamento
579,21,1938.2929511008028,1,7153.698700869261,Seguradora
580,24,577.2201230756682,0,3387.160409291737,Empréstimo
581,23,1382.1561586243504,0,5413.296749723225,Conta Corrente
582,22,2446.893555974872,1,6869.358572386291,Seguradora
583,25,1756.9628080519667,0,5273.0903363902025,Empréstimo
584,24,1060.736659330594,0,4712.909580510597,Empréstimo
585,25,1378.623825316173,0,2688.706052224641,Empréstimo
586,22,5333.214772123852,1,7124.615994324055,Seguradora
587,25,2763.403482187247,0,4478.397428491911,Corretora
588,24,1674.4938081633052,0,4999.352326651674,Empréstimo
589,25,1187.5292595664207,0,4558.25268128775,Empréstimo
590,22,761.5686702067821,1,7684.34061118694,Poupança
591,21,403.6701736340138,1,8176.356312363138,Poupança
592,23,476.80255035852605,0,6420.724537557397,Poupança
593,22,1282.4388123119084,1,6768.28713028188,Poupança
594,26,1978.2768595555583,0,5755.725439707408,Financiamento
595,20,1772.8171350016542,1,8548.630622175991,Poupança
596,22,1249.8781841171458,0,5122.239494179828,Conta Corrente
597,22,2442.135934037684,1,5451.298261820169,Conta Corrente
598,24,186.11863884362245,0,3576.3404001194913,Empréstimo
599,23,-302.2278920597232,0,3627.012142187883,Empréstimo
600,21,2215.837607592904,1,8427.86812273638,Seguradora
601,24,1061.4343422009918,0,4673.630963246168,Empréstimo
602,23,5148.793767743119,1,6556.5211258271465,Seguradora
603,22,1955.832102157128,1,5213.508057460368,Conta Corrente
604,25,2128.3803224342723,0,6532.546539350455,Financiamento
605,24,1398.9950857531298,0,7045.756947708343,Financiamento
606,22,543.1890563705888,0,4695.439923297339,Conta Corrente
607,24,-11.308668793928334,0,6740.104502759563,Corretora
608,22,181.1346502745339,0,4950.596396682415,Empréstimo
609,20,3430.6981500967922,1,8483.091087810266,Seguradora
610,24,1126.9826760721116,0,5629.137512363655,Empréstimo
611,22,2407.4729860801563,1,5628.788171382776,Conta Corrente
612,22,3024.552691418571,1,7743.862683829578,Seguradora
613,24,-186.99308775033074,0,6654.3470053777155,Financiamento
614,22,1428.2043522452846,1,4985.096140848847,Conta Corrente
615,23,2594.261126171884,1,7942.900416830083,Financiamento
616,23,2667.5018434446597,1,5872.931996332872,Conta Corrente
617,22,3730.3241283074203,1,4111.007358624821,Corretora
618,23,-96.27695910737356,0,7477.939930436991,Financiamento
619,23,4379.286985403642,1,6189.218471009841,Seguradora
620,21,683.5054046123255,1,8001.362155532652,Poupança
621,24,319.6486097622691,0,6606.215167032988,Financiamento
622,23,1176.800562127876,0,6003.0128888545305,Corretora
623,24,1028.7284778564403,0,4164.555602100672,Poupança
624,24,1179.1540952450512,0,6921.500497039785,Financiamento
625,21,986.9559929367641,1,7373.784492118438,Poupança
626,27,3303.8945772523502,0,6031.360846232081,Empréstimo
627,21,5202.2563858805315,1,7159.335762521775,Seguradora
628,23,1345.2543696902878,0,5737.9691833405195,Poupança
629,23,1152.6725507859676,1,7804.703906140765,Financiamento
630,26,2981.1444191274727,0,5361.084101816214,Empréstimo
631,23,638.7267346869498,0,7712.733845451216,Financiamento
632,20,1002.0462502734937,1,9279.224727097851,Poupança
633,24,1425.180345893723,0,6849.537241403237,Corretora
634,23,733.3832703152339,1,7970.225431368374,Financiamento
635,22,822.1733061738479,0,6421.036295122823,Seguradora
636,24,176.67798068190922,0,7363.5291270902035,Financiamento
637,23,458.6146325779157,0,7388.253429248367,Financiamento
638,22,2286.3618693433723,1,6728.166099932871,Seguradora
639,24,1253.4379213041823,0,7179.497661964489,Financiamento
640,22,5878.503765773306,1,2455.691299055464,Corretora
641,23,179.76306811267096,0,4928.58232055677,Conta Corrente
642,25,1103.3570679133327,0,5455.989794807362,Empréstimo
643,24,3050.6019778350646,0,4878.632304396053,Corretora
644,23,1103.3201198058257,0,7412.228831174217,Financiamento
645,23,4381.57809054613,1,6687.91507505277,Seguradora
646,22,2706.9272216669583,1,7137.293291087623,Seguradora
647,23,257.4485098741608,1,8396.276808918592,Financiamento
648,22,892.882221986988,1,7163.170212714266,Poupança
649,24,-123.31479775561726,0,7029.322613393227,Financiamento
650,23,2508.641831147342,1,6608.829994413955,Seguradora
651,23,3490.7305064939274,0,4414.924094058283,Corretora
652,25,2090.6219845207374,0,6280.6424885934575,Financiamento
653,26,705.3505611551541,0,6168.124821526866,Corretora
654,23,4401.859773128759,1,6839.3407587721385,Seguradora
655,24,1722.7754877781601,0,6938.89333259209,Financiamento
656,23,1272.118203509856,1,7999.888407013915,Financiamento
657,24,1307.7675855684213,0,5802.952039344232,Empréstimo
658,23,787.5825405390174,0,7643.040940704921,Financiamento
659,23,5009.961916348911,1,3993.4877645766305,Corretora
660,23,618.83799151154,0,7379.296567806513,Financiamento
661,22,2247.8730594934186,1,5297.874060902311,Conta Corrente
662,24,-53.25646049511556,0,3309.1711239433394,Empréstimo
663,21,2422.27319798322,1,7293.840691676652,Seguradora
664,23,1266.3197474744898,1,8001.158436868586,Financiamento
665,24,1119.7003661077517,0,7262.064543486498,Poupança
666,25,519.0251690529209,0,6779.7772880657485,Financiamento
667,23,2674.1182801508608,1,5801.917819587755,Conta Corrente
668,24,735.1557427385402,0,5486.185739768892,Empréstimo
669,23,777.4306469879364,0,5990.529791926065,Poupança
670,21,2707.6926609510438,1,7468.5432360016075,Seguradora
671,22,1353.7506092300996,1,8576.944795800728,Financiamento
672,22,1900.455136841988,1,5310.22521889744,Conta Corrente
673,25,1114.9047499703065,0,5985.9763265477495,Financiamento
674,22,1687.6903522863447,0,4901.276861604633,Corretora
675,23,-392.97596367619116,0,7393.521078575802,Financiamento
676,23,-406.44807136877324,0,2902.6511672043284,Empréstimo
677,22,1655.4604181385034,1,5089.493896862222,Conta Corrente
678,25,936.9435186758906,0,6217.185138191238,Financiamento
679,24,1963.7435031892878,0,6063.654225780548,Corretora
680,20,2955.1464738574628,1,8886.154821007656,Seguradora
681,25,-740.9999296421921,0,4654.982744256075,Poupança
682,23,116.12928994246552,0,5228.482635798743,Empréstimo
683,25,3104.614672406859,0,5065.07131718458,Corretora
684,24,1688.511967934167,0,6424.701374022397,Empréstimo
685,24,1644.4531798224425,0,6864.2441095549275,Financiamento
686,24,3367.1020874792302,1,5870.1602003996595,Seguradora
687,22,871.6924879931827,1,6611.530425251235,Poupança
688,22,2646.2335158910687,1,6681.208589054413,Poupança
689,26,2817.31914066643,0,5212.922713298117,Corretora
690,22,3712.0025941318895,1,7505.187872413547,Seguradora
691,22,3676.139657478849,1,6925.686991184614,Seguradora
692,25,870.3105203733647,0,6529.2537895201385,Financiamento
693,23,1533.2073443144275,1,7371.850686725787,Financiamento
694,25,2584.378719934219,0,5690.5362238449925,Corretora
695,25,1797.4794204583275,0,4335.7233001208815,Empréstimo
696,21,706.029519516343,1,7839.706839957544,Poupança
697,24,475.3812300540989,0,6607.466261927411,Financiamento
698,23,3068.5506208707175,1,5007.540977463142,Corretora
699,24,684.2585565968604,0,4724.97925470021,Empréstimo
700,23,3342.993069605349,1,5511.264901509246,Corretora
701,20,1079.4749567153679,1,9050.906299618666,Poupança
702,22,2477.615686146363,1,4863.612288072422,Corretora
703,20,2131.40075291143,1,8428.021894830375,Seguradora
704,22,2400.9560475613903,1,5501.253248394664,Conta Corrente
705,25,1595.9522204166606,0,6423.714859188419,Financiamento
706,25,-461.6230863197881,0,7063.327734219236,Corretora
707,24,3883.402912519437,0,3499.34401331231,Corretora
708,25,1226.9195085220636,0,4069.2699538211077,Empréstimo
709,25,2838.816970159167,0,4578.517635938779,Corretora
710,21,2649.193517759888,1,7416.114332654059,Seguradora
711,24,286.9661999067219,0,4136.772677813526,Empréstimo
712,21,-233.28610771050995,1,8491.105167485337,Poupança
713,23,2292.5559121742463,0,4535.0660805240395,Corretora
714,22,1908.7799721918375,1,7421.2358867606,Seguradora
715,23,718.415798114504,0,5822.889047093166,Empréstimo
716,21,3350.8676051963694,1,8040.625295928957,Seguradora
717,25,1157.590106415887,0,6563.218118944508,Financiamento
718,22,2918.3604566389326,1,7172.363538660274,Seguradora
719,22,1978.5753751759523,1,5309.687233522634,Conta Corrente
720,21,563.7620215956447,1,4474.249953723995,Conta Corrente
721,22,984.1920010826142,1,6405.467334444192,Seguradora
722,19,6424.128064815317,1,9854.365344340573,Seguradora
723,24,1019.1647625493418,0,7005.243725823455,Financiamento
724,22,124.73320484939165,0,4609.7311898575945,Conta Corrente
725,22,542.0854801764616,0,4814.661716729105,Conta Corrente
726,25,5811.255982247469,1,4548.474286197482,Seguradora
727,23,2560.4685981617267,1,5764.315754368986,Seguradora
728,21,866.7754883265931,1,6885.825315138107,Seguradora
729,23,-297.8164137977051,0,7804.563473465761,Financiamento
730,24,4593.881401305424,0,3751.763927496058,Corretora
731,22,2816.691593841457,1,5723.291974411338,Conta Corrente
732,23,3238.838349014201,1,5777.060955762399,Seguradora
733,21,-1351.51162333637,0,3892.864770790046,Conta Corrente
734,24,4473.501907718346,0,3300.5496760713922,Corretora
735,22,968.4823656924519,1,6480.730911619377,Poupança
736,22,6342.688371462184,1,6844.121262456832,Seguradora
737,22,4063.6856195027617,1,6288.575461418227,Seguradora
738,21,3835.2692681331982,1,7989.2272629293275,Seguradora
739,22,3388.8197105266913,1,4156.92954940115,Corretora
740,25,2473.065824890999,0,6376.495015705758,Financiamento
741,24,809.4164582898464,0,6530.296873790244,Financiamento
742,22,508.64618300726414,1,7880.629765835978,Poupança
743,24,1097.1450699716984,0,7122.53389937324,Empréstimo
744,22,1849.4801384093016,1,5312.53304808017,Conta Corrente
745,22,609.0542481232306,0,4670.473964809244,Conta Corrente
746,26,2377.866610156386,0,4349.456729069571,Empréstimo
747,25,3917.420330600625,0,5035.12427234825,Corretora
748,24,1780.2052472046382,0,6919.403524917971,Financiamento
749,21,780.5238925975337,1,4695.419023968436,Conta Corrente
750,22,-368.9242687878367,0,4636.465321555255,Conta Corrente
751,24,3323.1576244100556,1,5759.44185888217,Seguradora
752,23,237.46381601162315,0,4685.0694735400675,Empréstimo
753,23,4489.576775513113,1,4497.756210988446,Corretora
754,22,2714.1693901102285,1,6561.48724341036,Poupança
755,23,-277.74317217830503,0,6063.94878962727,Poupança
756,24,31.294844426338784,0,5155.069429820252,Poupança
757,22,1326.7632960412811,1,5086.928495925823,Conta Corrente
758,24,-198.8629567781075,0,4940.200628403511,Poupança
759,22,2663.263364280842,1,5564.0326477169665,Conta Corrente
760,23,4561.335002093448,1,6406.818834301242,Seguradora
761,23,764.5916956570616,0,7292.9728371988695,Financiamento
762,22,1382.0028378992774,0,5255.838767664931,Conta Corrente
763,23,4444.832047157494,1,3290.1858752980706,Corretora
764,25,1801.8721174164916,0,4577.490770934234,Corretora
765,22,134.50530452814192,1,7437.939448702367,Poupança
766,22,1662.9171906736008,1,7197.682051861367,Poupança
767,25,2833.1090201230413,0,5192.755856759573,Seguradora
768,26,1864.1422717433918,0,3328.5527923575823,Empréstimo
769,24,104.37715261689706,0,6962.888659853483,Financiamento
770,23,3935.8875698899624,1,6246.14728776145,Conta Corrente
771,21,389.4080055393634,1,7587.675326727652,Poupança
772,22,649.8483470706067,0,5044.752483014675,Conta Corrente
773,25,575.3523154193509,0,6434.638433586331,Financiamento
774,25,919.8741830783725,0,6664.49043404738,Corretora
775,23,1859.2567259820598,0,6301.625360125182,Seguradora
776,24,3959.6357531684625,0,4685.391455992322,Corretora
777,21,2093.0956085332064,1,7599.33404246968,Seguradora
778,25,548.410706746552,0,6610.815118968759,Financiamento
779,24,774.3796232134581,0,4066.6394541140266,Empréstimo
780,22,1471.1366218368626,1,6122.7101488198305,Poupança
781,22,970.1135929905645,0,4964.863704258799,Conta Corrente
782,22,2553.329503154692,1,5597.322031480402,Conta Corrente
783,22,2087.1630044288027,1,5188.399352471636,Conta Corrente
784,25,1894.2726964301678,0,4024.409462750981,Empréstimo
785,20,1253.7274011401148,1,8754.900337609162,Poupança
786,21,1104.532227507843,1,4748.848982003167,Conta Corrente
787,22,-978.7359499571293,0,4150.752134917918,Conta Corrente
788,22,547.8940217496711,0,4853.840243523651,Conta Corrente
789,24,3301.3816743161437,0,5449.99390284856,Corretora
790,22,1209.993141633763,0,5108.147473261184,Conta Corrente
791,25,-382.40404271744046,0,4117.433974824438,Poupança
792,25,2115.721592017593,0,5732.3525034548775,Corretora
793,24,2450.4589617897955,0,3975.177795765513,Corretora
794,22,-1146.1607955615154,0,4121.470097593999,Conta Corrente
795,23,989.1341564639597,0,7589.916132005682,Financiamento
796,20,1999.2064607346233,1,8813.05624459578,Poupança
797,22,4418.73830810791,1,4140.80697077545,Corretora
798,23,1437.9206386479273,0,5877.594295691781,Empréstimo
799,23,180.4262444512521,0,5401.522685007091,Empréstimo
800,25,906.2046017598213,0,2157.226518005845,Empréstimo
801,25,1143.896380076016,0,5649.490038770834,Corretora
802,21,596.6024102256035,1,4550.115085661397,Conta Corrente
803,23,1759.0192772180324,0,5614.128518749969,Conta Corrente
804,23,3081.28675638245,1,5609.3190178235045,Corretora
805,22,1938.100005616888,1,6351.480099623724,Seguradora
806,24,556.1829636389841,0,6986.618354158984,Financiamento
807,24,2032.8402084990182,0,7215.461872446186,Financiamento
808,25,234.63698337448614,0,6113.33403992925,Financiamento
809,23,870.3208365892525,0,5444.269466376593,Empréstimo
810,24,706.0088130189423,0,5018.23043717914,Empréstimo
811,23,-30.00207956801848,0,3864.583214151145,Empréstimo
812,24,2091.932773464415,0,5429.08043740878,Corretora
813,25,1398.057453516035,0,5340.451948937899,Empréstimo
814,25,2217.3509460558257,0,4657.552189726261,Corretora
815,23,2153.5239416042486,0,5062.68764888647,Corretora
816,24,3525.3268735999673,0,4736.260020336701,Corretora
817,23,3446.7883152448,1,6212.540843919339,Conta Corrente
818,24,721.374461475329,0,6684.573928646692,Financiamento
819,22,2525.722758650244,1,7788.134253407809,Seguradora
820,24,55.76202761986981,0,3198.620590482542,Empréstimo
821,25,2532.4068812524592,0,5091.25172416316,Corretora
822,23,758.4770122132536,0,7287.268741998747,Financiamento
823,24,4652.659872599571,0,3951.819013909847,Corretora
824,24,-145.18983927188066,0,2474.446796198456,Empréstimo
825,26,3328.963523383024,0,5094.324465020371,Corretora
826,23,1317.4499150384293,0,5879.769960303424,Poupança
827,23,2715.9670548592485,0,5139.970399323855,Corretora
828,24,1158.2813504027106,0,7145.581581698506,Financiamento
829,23,3645.927883932875,1,6127.814955879993,Seguradora
830,24,2944.1937455689886,0,3878.2038104016347,Corretora
831,21,1160.273826178064,1,8020.153021299833,Poupança
832,22,1078.2313742378947,1,4857.698673734987,Conta Corrente
833,23,514.9535162122305,0,5768.718200765018,Poupança
834,20,3267.8816097769136,1,7626.557092947504,Seguradora
835,23,4009.4019323662787,1,6536.382867060977,Seguradora
836,23,1690.7070919933913,0,5467.401628709803,Conta Corrente
837,25,2088.193534752927,0,5598.233016671348,Empréstimo
838,21,3758.578043742759,1,7337.143134135166,Seguradora
839,24,1355.0491092777513,0,7205.3127317074195,Financiamento
840,24,539.2056012915143,0,5674.905557482693,Corretora
841,24,988.9026139017217,0,6829.727356045355,Financiamento
842,26,2172.619372824947,0,3755.1852615524563,Empréstimo
843,24,2135.0346500356063,0,5976.018798944467,Corretora
844,23,912.6623660828396,0,7313.584707689881,Financiamento
845,23,1696.6826679009075,0,5179.1469271674905,Poupança
846,23,186.40488975069582,0,3878.0659069986846,Empréstimo
847,26,1640.5483975870125,0,5626.137699685705,Financiamento
848,22,642.1262312563636,0,4955.831030798338,Conta Corrente
849,24,1767.6416745893648,0,7274.265859240379,Financiamento
850,23,3185.994399418239,1,6694.0482618813985,Seguradora
851,26,2788.489200446515,0,4558.126690919162,Empréstimo
852,25,1649.0518541684694,0,3852.9503995385826,Empréstimo
853,22,2915.99792986749,1,7288.00137847186,Seguradora
854,24,1453.7324424387282,0,4449.709887029572,Empréstimo
855,24,1192.7652473049393,0,6767.090849428619,Financiamento
856,21,2349.8231926370067,1,8657.302198512965,Seguradora
857,22,226.56288807435797,0,4515.331562457527,Conta Corrente
858,22,4529.441776215783,1,7021.808972330057,Seguradora
859,22,1232.3916172279094,0,5261.923384054737,Conta Corrente
860,21,3295.3508208923868,1,8082.513748476579,Seguradora
861,23,-328.64299438646236,0,3980.8270816815943,Empréstimo
862,22,898.7803432559523,1,8305.568147303024,Financiamento
863,22,-16.246646494239236,0,4545.546687502281,Conta Corrente
864,23,-580.3889867962697,0,6307.8871321628985,Poupança
865,22,464.89110092004717,0,5001.083819963292,Conta Corrente
866,25,1012.9985075717185,0,5642.6836825509545,Empréstimo
867,26,1713.6118866586387,0,2047.4408638495559,Empréstimo
868,23,1805.981989846305,0,5428.336645256384,Poupança
869,21,1629.6120038179708,1,8348.936398422833,Poupança
870,20,4460.756696070413,1,8805.74576868662,Seguradora
871,25,1788.3400160400204,0,5186.2446599765235,Corretora
872,24,1927.228163997407,0,5241.322562982388,Corretora
873,24,1970.1362176629734,0,6610.443117146787,Financiamento
874,23,445.94691448454427,0,7808.798846748583,Financiamento
875,23,-193.7431138633583,0,4142.91364213126,Empréstimo
876,23,1734.8395549158067,0,5104.017211023962,Poupança
877,24,845.4225587947852,0,3276.7934761321208,Empréstimo
878,23,2810.914160133015,1,5762.986006578092,Seguradora
879,24,3636.6911576032767,0,4588.984595975129,Corretora
880,21,2018.608432493302,1,7039.07762921949,Poupança
881,23,2278.872556723122,1,5902.347065067853,Seguradora
882,22,503.3843441507717,0,4932.3562047978285,Conta Corrente
883,23,-1154.6487142535154,0,7009.455808154963,Poupança
884,23,415.8874141581144,0,5720.545578026817,Poupança
885,23,656.6863071732528,0,6299.397468423795,Poupança
886,21,1478.3388724066047,1,7475.3270266244235,Poupança
887,22,1508.483741556832,1,6950.835675847485,Poupança
888,21,1711.1518319128556,1,7451.285912311509,Poupança
889,23,1329.5826220362085,1,7553.441414387277,Financiamento
890,23,439.69458807089336,1,7847.317951137845,Financiamento
891,24,592.731385901303,0,5909.037998841345,Empréstimo
892,25,2621.3885062619024,0,5170.436966821549,Corretora
893,22,1566.2616121374479,1,7270.7279738934285,Seguradora
894,22,1647.7937617456669,1,5339.023082100952,Conta Corrente
895,21,-289.2417148970843,0,4200.905533933677,Conta Corrente
896,25,270.4451258618819,0,3525.7128231128245,Poupança
897,22,2266.315002700457,1,5481.540141852466,Conta Corrente
898,24,1044.7201296937762,0,7010.895335620452,Financiamento
899,23,2971.613103146848,1,6433.88261593486,Seguradora
900,24,1559.7630822413926,0,5685.3604837811845,Corretora
901,22,1800.3999785990698,1,7147.840924117826,Poupança
902,24,1795.7913294196044,0,7477.897750090109,Financiamento
903,26,2278.838838184097,0,6773.767495111928,Corretora
904,22,-416.2414225651485,0,6784.271034098113,Empréstimo
905,23,4260.54075420344,1,6312.961487618566,Seguradora
906,26,2273.9217016283856,0,4791.128767618634,Poupança
907,23,4334.878904225322,1,3752.1334220388617,Corretora
908,24,999.1379717708488,0,6051.13995857124,Empréstimo
909,25,1893.7585874740403,0,6969.417748958385,Financiamento
910,22,1565.4467885499973,1,7009.359860459255,Poupança
911,24,480.3878798836116,0,5045.826513785105,Empréstimo
912,21,1885.3417971747585,1,7710.757822881163,Poupança
913,21,144.62909073391072,0,4213.183420091334,Conta Corrente
914,24,270.9104806559983,0,7222.366743406099,Financiamento
915,22,-62.916199091941124,0,4670.455250091393,Conta Corrente
916,23,2829.1303552849668,1,6043.854292752643,Conta Corrente
917,25,-111.30540974709734,0,3874.6661308733223,Poupança
918,24,-200.2454239567224,0,6710.889289969113,Corretora
919,25,2453.060691927,0,4470.739610795138,Corretora
920,24,1561.073789058507,0,7045.8417635638825,Financiamento
921,23,-345.6387232348428,0,4136.076823102047,Empréstimo
922,23,-90.38861860146241,0,3648.9437455461016,Empréstimo
923,21,1954.2903473890347,1,8032.118184555239,Poupança
924,23,825.3340878722124,0,7407.291208057167,Financiamento
925,22,2286.243230114222,1,6878.518742171057,Seguradora
926,26,920.7718472717819,0,6134.059163607939,Corretora
927,23,2012.2967272863402,1,6623.063995548305,Empréstimo
928,23,-859.7237635872527,0,6887.224321254892,Poupança
929,26,2645.8440617412375,0,4834.327920516607,Empréstimo
930,24,550.09201809446,0,6993.184588437737,Financiamento
931,25,2227.364639007802,0,6385.368248662242,Empréstimo
932,24,1303.8592702733977,0,6531.9193115451135,Empréstimo
933,23,435.2701744845828,0,5567.3253796000645,Empréstimo
934,23,-137.23529777869993,0,6523.8699958579,Poupança
935,23,2049.6046162383627,1,8054.047493880152,Financiamento
936,22,6141.28188618783,1,3730.612591511049,Corretora
937,25,2820.1381086336496,0,4791.416224357712,Corretora
938,24,621.7190124099983,0,4522.965561308277,Empréstimo
939,25,2253.7882334900874,0,4219.010329730128,Corretora
940,21,-877.8831061345778,0,4041.7886481019405,Conta Corrente
941,23,3539.9018442395336,1,5379.491014390788,Corretora
942,23,246.0031225170085,0,6810.998502548999,Empréstimo
943,22,450.6473699465494,0,4795.471570839787,Conta Corrente
944,21,3833.7581571699625,1,8836.304798933383,Seguradora
945,19,3197.9418405546235,1,9548.87459471061,Seguradora
946,24,2953.357634222801,0,5073.761224993276,Seguradora
947,26,2791.2435214312304,0,3925.0808017232766,Empréstimo
948,22,894.9165338026442,1,6572.0024376915835,Poupança
949,23,2304.512129082356,1,5946.938662035507,Seguradora
950,20,2108.088780282003,1,7511.005398209269,Poupança
951,23,2841.3276195935246,1,5858.94166700343,Seguradora
952,22,357.1838563513392,0,4794.996897037016,Conta Corrente
953,22,1356.2582709086985,1,4908.36660910878,Conta Corrente
954,23,1723.3147571853663,0,5552.237118292531,Seguradora
955,23,3074.341860496914,1,5723.78412922069,Seguradora
956,22,2412.853142384245,1,6482.395974343716,Poupança
957,24,3127.8003950590028,1,6251.263878251005,Seguradora
958,26,3662.3507031954723,0,5915.946938771743,Corretora
959,24,5256.696978372308,0,3989.8730429960033,Corretora
960,24,641.1175803336828,0,3434.0056828076545,Empréstimo
961,26,-130.4773388794751,0,3412.250950337344,Poupança
962,24,1133.6167126943944,0,4591.7694852209515,Empréstimo
963,23,435.28024040325784,0,5381.965265457871,Poupança
964,23,738.6381296554003,0,7506.442618128316,Financiamento
965,21,1686.3821658433458,1,7810.41909220744,Poupança
966,21,2084.56614423125,1,8335.302347982584,Seguradora
967,25,3799.5883054438605,0,3904.2721408113016,Corretora
968,25,1098.1667810074835,0,6592.157777440284,Financiamento
969,24,1191.683228040498,0,6312.318811976194,Corretora
970,25,817.4759356555817,0,6165.933457148254,Financiamento
971,22,2129.635018093118,1,5443.564213537067,Conta Corrente
972,21,1236.5431119205318,1,8029.362822404419,Poupança
973,22,516.7173241698848,0,4878.1568769440255,Conta Corrente
974,23,4325.50384305559,1,5708.113494819367,Seguradora
975,25,2311.8276797124945,0,3983.324529840284,Poupança
976,24,1473.5956559975677,0,5106.7372746087385,Financiamento
977,20,2629.8354806696293,1,8875.443914824125,Poupança
978,24,2911.928583363686,0,5396.475564836923,Corretora
979,24,1417.5826973775852,0,7215.423535774042,Financiamento
980,24,4323.938840190458,0,4244.714759238094,Corretora
981,19,898.539537244822,1,8736.48646156221,Seguradora
982,22,-314.2723375158773,1,7712.00015445111,Poupança
983,24,3211.381741630672,0,5312.255003763149,Corretora
984,24,681.0800340182939,0,4284.7964996929495,Empréstimo
985,22,2062.350820796138,1,6831.311027484318,Seguradora
986,23,902.0191128120654,0,6133.103760311363,Empréstimo
987,23,1854.3154873740714,0,5431.243551618925,Corretora
988,22,1636.6038572619286,1,5172.932078103354,Conta Corrente
989,24,380.12986352259645,0,7088.428694860837,Financiamento
990,24,338.6070539482162,0,4759.943234402824,Empréstimo
991,22,641.5794357915962,0,4664.624072248039,Corretora
992,21,137.63123104320618,0,4424.3283409554215,Conta Corrente
993,25,406.3258453823022,0,4590.204802450202,Poupança
994,23,101.70905526955121,0,7841.242264914238,Financiamento
995,22,1814.494913157741,1,5350.8889594107195,Conta Corrente
996,24,869.4889988611347,0,7035.815493360131,Financiamento
997,24,1323.3433535309189,0,6730.047129683718,Financiamento
998,21,-439.67847790177393,0,4216.113782829232,Conta Corrente
999,23,1462.1464362046504,0,5512.602749339904,Conta Corrente
